…
## Example

This is a basic example which shows you how to solve a common problem:

``` r
library(costofliving)
```

Loading the `us_cost_of_living` data set:

``` r
us_cost_of_living
#> # A tibble: 50 × 8
#>    state       state_abbr cost_index grocery_c…¹ housi…² utili…³ trans…⁴ misc_…⁵
#>    <chr>       <chr>           <dbl>       <dbl>   <dbl>   <dbl>   <dbl>   <dbl>
#>  1 Alabama     AL               87.9        98.2    70.1   101.     92.7    94.1
#>  2 Alaska      AK              127.        134.    127.    155.    110.    114. 
#>  3 Arizona     AZ              103.        102.    108.    105.     98.8    99.7
#>  4 Arkansas    AR               90.9        93.1    79.1    92.3    92.3    97.4
#>  5 California  CA              142.        114.    202.    124.    132.    111. 
#>  6 Colorado    CO              105.         98.1   116.     88.4   106.    107. 
#>  7 Connecticut CT              122.        106.    135.    132.    111.    114. 
#>  8 Delaware    DE              108.        114     103.     96.5   113     114. 
#>  9 Florida     FL              100.        106.     99     105.     98.8    98.4
#> 10 Georgia     GA               88.8        95.9    74.4    90.5    92.6    96.6
#> # … with 40 more rows, and abbreviated variable names ¹​grocery_cost_index,
#> #   ²​housing_cost_index, ³​utilities_cost_index, ⁴​transportation_cost_index,
#> #   ⁵​misc_cost_index
```

Loading the `us_minimum_wage` data set:

``` r
us_minimum_wage
#> # A tibble: 50 × 3
#>    state       state_abbr minimum_wage
#>    <chr>       <chr>             <dbl>
#>  1 Alabama     AL                 7.25
#>  2 Alaska      AK                10.3 
#>  3 Arizona     AZ                12.8 
#>  4 Arkansas    AR                11   
#>  5 California  CA                15   
#>  6 Colorado    CO                12.6 
#>  7 Connecticut CT                14   
#>  8 Delaware    DE                10.5 
#>  9 Florida     FL                10   
#> 10 Georgia     GA                 7.25
#> # … with 40 more rows
```
…
Loading the `us_state_local_tax_rate` data set:

``` r
us_state_local_tax_rate
#> # A tibble: 50 × 5
#>    state       state_abbr state_tax_rate avg_local_tax_rate combined_tax_rate
#>    <chr>       <chr>               <dbl>              <dbl>             <dbl>
#>  1 Alabama     AL                   4                  5.14              9.14
#>  2 Alaska      AK                   0                  1.43              1.43
#>  3 Arizona     AZ                   5.6                2.77              8.37
#>  4 Arkansas    AR                   6.5                2.93              9.43
#>  5 California  CA                   7.25               1.31              8.56
#>  6 Colorado    CO                   2.9                4.73              7.63
#>  7 Connecticut CT                   6.35               0                 6.35
#>  8 Delaware    DE                   0                  0                 0   
#>  9 Florida     FL                   6                  1.05              7.05
#> 10 Georgia     GA                   4                  3.29              7.29
#> # … with 40 more rows
```
…
