costofliving
…
You can install the development version of costofliving from GitHub with:

# install.packages("devtools")
devtools::install_github("thuntran/costofliving")

Example

Loading the costofliving package:

library(costofliving)

Loading the us_cost_of_living data set:

us_cost_of_living
#> # A tibble: 50 × 9
#>    state       state_a…¹ groce…² medic…³ housi…⁴ trans…⁵ civic…⁶ other…⁷ total…⁸
#>    <chr>       <chr>       <dbl>   <dbl>   <dbl>   <dbl>   <dbl>   <dbl>   <dbl>
#>  1 Alabama     AL           3351    2733    8096    5509    2503    4508   26700
#>  2 Alaska      AK           3999    2382   11162    4938    2581    4748   29810
#>  3 Arizona     AZ           3999    2607   10988    4938    2581    4748   29861
#>  4 Arkansas    AR           3351    2521    7402    5509    2503    4508   25794
#>  5 California  CA           3999    2288   17651    4938    2581    4748   36205
#>  6 Colorado    CO           3999    2729   13357    4938    2581    4748   32352
#>  7 Connecticut CT           3891    2798   12498    4244    3207    5275   31913
#>  8 Delaware    DE           3351    2863   10845    5509    2503    4508   29579
#>  9 Florida     FL           3351    2871   11991    5509    2503    4508   30733
#> 10 Georgia     GA           3351    2583   10882    5509    2503    4508   29336
#> # … with 40 more rows, and abbreviated variable names ¹​state_abbr,
#> #   ²​grocery_cost, ³​medical_cost, ⁴​housing_cost, ⁵​transportation_cost,
#> #   ⁶​civic_cost, ⁷​other_cost, ⁸​total_avg_cost

Loading the us_minimum_wage data set:

us_minimum_wage
#> # A tibble: 50 × 3
#>    state       state_abbr minimum_wage
#>    <chr>       <chr>             <dbl>
#>  1 Alabama     AL                 7.25
#>  2 Alaska      AK                10.3 
#>  3 Arizona     AZ                12.8 
#>  4 Arkansas    AR                11   
#>  5 California  CA                15   
#>  6 Colorado    CO                12.6 
#>  7 Connecticut CT                14   
#>  8 Delaware    DE                10.5 
#>  9 Florida     FL                10   
#> 10 Georgia     GA                 7.25
#> # … with 40 more rows
…
Loading the us_state_local_tax_rate data set:

us_state_local_tax_rate
#> # A tibble: 50 × 5
#>    state       state_abbr state_tax_rate avg_local_tax_rate combined_tax_rate
#>    <chr>       <chr>               <dbl>              <dbl>             <dbl>
#>  1 Alabama     AL                   4                  5.14              9.14
#>  2 Alaska      AK                   0                  1.43              1.43
#>  3 Arizona     AZ                   5.6                2.77              8.37
#>  4 Arkansas    AR                   6.5                2.93              9.43
#>  5 California  CA                   7.25               1.31              8.56
#>  6 Colorado    CO                   2.9                4.73              7.63
#>  7 Connecticut CT                   6.35               0                 6.35
#>  8 Delaware    DE                   0                  0                 0   
#>  9 Florida     FL                   6                  1.05              7.05
#> 10 Georgia     GA                   4                  3.29              7.29
#> # … with 40 more rows
…
